<?xml version="1.0" encoding="UTF-8" standalone="no"?>
<svg width="72px" height="72px" viewBox="0 0 72 72" version="1.1" xmlns="http://www.w3.org/2000/svg" xmlns:xlink="http://www.w3.org/1999/xlink" xmlns:sketch="http://www.bohemiancoding.com/sketch/ns">
    <title>Untitled 3</title>
    <description>Created with Sketch (http://www.bohemiancoding.com/sketch)</description>
    <defs></defs>
    <g id="Page-1" stroke="none" stroke-width="1" fill="none" fill-rule="evenodd" sketch:type="MSPage">
        <path d="M36,72 C55.882252,72 72,55.882252 72,36 C72,16.117748 55.882252,0 36,0 C16.117748,0 0,16.117748 0,36 C0,55.882252 16.117748,72 36,72 Z M43.6875,24.78125 C43.3958319,24.0312463 42.9687528,23.4322939 42.40625,22.984375 C41.8437472,22.5364561 41.2343783,22.1875012 40.578125,21.9375 C39.9218717,21.6874988 39.2656283,21.526042 38.609375,21.453125 C37.9531217,21.380208 37.4062522,21.34375 36.96875,21.34375 C35.5104094,21.34375 34.151048,21.640622 32.890625,22.234375 C31.630202,22.828128 30.5416713,23.6979109 29.625,24.84375 C28.7083287,25.9895891 27.9843777,27.4166581 27.453125,29.125 C26.9218723,30.8333419 26.65625,32.7916556 26.65625,35 C26.65625,37.1250106 26.9218723,39.0885327 27.453125,40.890625 C27.9843777,42.6927173 28.7291619,44.2447852 29.6875,45.546875 C30.6458381,46.8489648 31.8020766,47.8645797 33.15625,48.59375 C34.5104234,49.3229203 36.0104084,49.6875 37.65625,49.6875 C38.656255,49.6875 39.6458284,49.5468764 40.625,49.265625 C41.6041716,48.9843736 42.5312456,48.5937525 43.40625,48.09375 C44.2812544,47.5937475 45.088538,47.01042 45.828125,46.34375 C46.567712,45.67708 47.1979141,44.9583372 47.71875,44.1875 L49.375,45.46875 C48.5208291,46.80209 47.5468805,47.9427036 46.453125,48.890625 C45.3593695,49.8385464 44.2135477,50.6197886 43.015625,51.234375 C41.8177023,51.8489614 40.6093811,52.3020819 39.390625,52.59375 C38.1718689,52.8854181 37.0208388,53.03125 35.9375,53.03125 C33.7708225,53.03125 31.7291763,52.661462 29.8125,51.921875 C27.8958237,51.182288 26.2187572,50.109382 24.78125,48.703125 C23.3437428,47.296868 22.2083375,45.5729269 21.375,43.53125 C20.5416625,41.4895731 20.125,39.1666797 20.125,36.5625 C20.125,35.0833259 20.3072898,33.6250072 20.671875,32.1875 C21.0364602,30.7499928 21.5624966,29.3802148 22.25,28.078125 C22.9375034,26.7760352 23.7708284,25.5677139 24.75,24.453125 C25.7291716,23.3385361 26.8385355,22.3750041 28.078125,21.5625 C29.3177145,20.7499959 30.6718677,20.1145856 32.140625,19.65625 C33.6093823,19.1979144 35.1666584,18.96875 36.8125,18.96875 C38.5833422,18.96875 40.1979094,19.1874978 41.65625,19.625 C43.1145906,20.0625022 44.3645781,20.6458297 45.40625,21.375 C46.4479219,22.1041703 47.2499972,22.9427036 47.8125,23.890625 C48.3750028,24.8385464 48.65625,25.8333281 48.65625,26.875 C48.65625,27.7916712 48.4010442,28.5781217 47.890625,29.234375 C47.3802058,29.8906283 46.6458381,30.2291666 45.6875,30.25 C45.1249972,30.2708334 44.6562519,30.1822927 44.28125,29.984375 C43.9062481,29.7864573 43.6041678,29.5416681 43.375,29.25 C43.1458322,28.9583319 42.9791672,28.6406267 42.875,28.296875 C42.7708328,27.9531233 42.71875,27.6458347 42.71875,27.375 C42.71875,26.9583313 42.7864577,26.5208356 42.921875,26.0625 C43.0572923,25.6041644 43.3124981,25.1770853 43.6875,24.78125 Z" id="Oval-1" fill="#FFFFFF" sketch:type="MSShapeGroup"></path>
    </g>
</svg>